…
print(data3)

## # A tibble: 460 x 6
## # Groups:   Country [115]
##    Country Decade total_consumption~ rate_consumptio~ total_co2_sum rate_co2_sum
##    <chr>    <dbl>              <dbl>            <dbl>         <dbl>        <dbl>
##  1 Albania   2020        15213703340            5327.   50771840300       17778.
##  2 Albania   2030        14807763080            5327.   49417118600       17778.
##  3 Albania   2040        13884541990            5327.   46336104550       17778.
##  4 Albania   2050         1328095890             533.    4432180050        1778.
##  5 Algeria   2020       171200505230            3645.  332472123240        7079.
##  6 Algeria   2030       192272828330            3645.  373394666040        7079.
##  7 Algeria   2040       211587484210            3645.  410903811480        7079.
##  8 Algeria   2050        22207042730             365.   43126173240         708.
##  9 Angola    2020        44084551280            1160.  156965935280        4130.
## 10 Angola    2030        59532447450            1160.  211969182450        4130.
## # ... with 450 more rows

print(data4)

## # A tibble: 115 x 7
##    Country rate_consumptio~ total_consumpti~ rate_consumptio~ total_consumpti~
##    <chr>              <dbl>            <dbl>            <dbl>            <dbl>
##  1 Finland             19.2       108938960              58.2       328895213.
##  2 Lithua~             13.1        34086000              50.5       130894470.
##  3 Sweden              16.6       186018560              50         559109677.
##  4 Nether~             17.7       314137260.             48.6       860551003.
##  5 Albania             12.4        33802650              48.4       132651332.
##  6 Ireland             17.4        93958170              47.2       254667797.
##  7 Switze~             13.5       125849280              46.8       434497082.
##  8 Italy               15.6       913458000              46.7      2727928502.
##  9 Denmark             16.5       101116680.             45.4       277348274.
## 10 Luxemb~             21.4        14937630              45.3        32616100.
## # ... with 105 more rows, and 2 more variables: rate_consumption_sd <dbl>,
## #   total_consumption_sd <dbl>

print(data5)

## # A tibble: 115 x 7
##    Country rate_co2_median total_co2_median rate_co2_mean total_co2_mean
##    <chr>             <dbl>            <dbl>         <dbl>          <dbl>
##  1 Argent~            19.7        997646700          197.    9976336091.
##  2 Austra~            28.2        837132250          176.    5208730288.
##  3 Albania            14.2         39475380          162.     442689864.
##  4 New Ze~            32.5        178447390          159.     868106633.
##  5 Iceland            28.9         11226540          157.      60790537.
##  6 Uruguay            20.8         75122550          149.     532942304.
##  7 Brazil             21.7       4932164640          147.   33053556512.
##  8 Luxemb~            23.0         16623040          145.     104707574.
##  9 Kazakh~            17.6        366062400          143.    2977510908.
## 10 Sweden             17.9        199768730          139.    1552322274.
## # ... with 105 more rows, and 2 more variables: rate_co2_sd <dbl>,
## #   total_co2_sd <dbl>
…
